<svg width="70" height="70" viewBox="0 0 70 70" fill="none" xmlns="http://www.w3.org/2000/svg">
<path d="M17.5 26.25L35 43.75L52.5 26.25" stroke="white" stroke-width="10" stroke-linecap="round" stroke-linejoin="round"/>
</svg>
